{
	"inputs" : 
	[
		{
			"path" : "CMakeLists.txt"
		},
		{
			"isCMake" : true,
			"isExternal" : true,
			"path" : "/home/plas9a/Qt/Tools/CMake/share/cmake-3.19/Modules/CMakeDetermineSystem.cmake"
		},
		{
			"isCMake" : true,
			"isExternal" : true,
			"path" : "/home/plas9a/Qt/Tools/CMake/share/cmake-3.19/Modules/CMakeSystem.cmake.in"
		},
		{
			"isGenerated" : true,
			"path" : "/home/plas9a/code-git/qt/build-learn-Desktop_Qt_6_0_3_GCC_64bit-Debug/CMakeFiles/3.19.2/CMakeSystem.cmake"
		},
		{
			"isCMake" : true,
			"isExternal" : true,
			"path" : "/home/plas9a/Qt/Tools/CMake/share/cmake-3.19/Modules/CMakeNinjaFindMake.cmake"
		},
		{
			"isCMake" : true,
			"isExternal" : true,
			"path" : "/home/plas9a/Qt/Tools/CMake/share/cmake-3.19/Modules/CMakeSystemSpecificInitialize.cmake"
		},
		{
			"isCMake" : true,
			"isExternal" : true,
			"path" : "/home/plas9a/Qt/Tools/CMake/share/cmake-3.19/Modules/CMakeDetermineCXXCompiler.cmake"
		},
		{
			"isCMake" : true,
			"isExternal" : true,
			"path" : "/home/plas9a/Qt/Tools/CMake/share/cmake-3.19/Modules/CMakeDetermineCompiler.cmake"
		},
		{
			"isCMake" : true,
			"isExternal" : true,
			"path" : "/home/plas9a/Qt/Tools/CMake/share/cmake-3.19/Modules/Platform/Linux-Determine-CXX.cmake"
		},
		{
			"isCMake" : true,
			"isExternal" : true,
			"path" : "/home/plas9a/Qt/Tools/CMake/share/cmake-3.19/Modules/CMakeDetermineCompilerId.cmake"
		},
		{
			"isCMake" : true,
			"isExternal" : true,
			"path" : "/home/plas9a/Qt/Tools/CMake/share/cmake-3.19/Modules/CMakeCompilerIdDetection.cmake"
		},
		{
			"isCMake" : true,
			"isExternal" : true,
			"path" : "/home/plas9a/Qt/Tools/CMake/share/cmake-3.19/Modules/Compiler/ADSP-DetermineCompiler.cmake"
		},
		{
			"isCMake" : true,
			"isExternal" : true,
			"path" : "/home/plas9a/Qt/Tools/CMake/share/cmake-3.19/Modules/Compiler/ARMCC-DetermineCompiler.cmake"
		},
		{
			"isCMake" : true,
			"isExternal" : true,
			"path" : "/home/plas9a/Qt/Tools/CMake/share/cmake-3.19/Modules/Compiler/ARMClang-DetermineCompiler.cmake"
		},
		{
			"isCMake" : true,
			"isExternal" : true,
			"path" : "/home/plas9a/Qt/Tools/CMake/share/cmake-3.19/Modules/Compiler/AppleClang-DetermineCompiler.cmake"
		},
		{
			"isCMake" : true,
			"isExternal" : true,
			"path" : "/home/plas9a/Qt/Tools/CMake/share/cmake-3.19/Modules/Compiler/Clang-DetermineCompilerInternal.cmake"
		},
		{
			"isCMake" : true,
			"isExternal" : true,
			"path" : "/home/plas9a/Qt/Tools/CMake/share/cmake-3.19/Modules/Compiler/Borland-DetermineCompiler.cmake"
		},
		{
			"isCMake" : true,
			"isExternal" : true,
			"path" : "/home/plas9a/Qt/Tools/CMake/share/cmake-3.19/Modules/Compiler/Clang-DetermineCompiler.cmake"
		},
		{
			"isCMake" : true,
			"isExternal" : true,
			"path" : "/home/plas9a/Qt/Tools/CMake/share/cmake-3.19/Modules/Compiler/Clang-DetermineCompilerInternal.cmake"
		},
		{
			"isCMake" : true,
			"isExternal" : true,
			"path" : "/home/plas9a/Qt/Tools/CMake/share/cmake-3.19/Modules/Compiler/Comeau-CXX-DetermineCompiler.cmake"
		},
		{
			"isCMake" : true,
			"isExternal" : true,
			"path" : "/home/plas9a/Qt/Tools/CMake/share/cmake-3.19/Modules/Compiler/Compaq-CXX-DetermineCompiler.cmake"
		},
		{
			"isCMake" : true,
			"isExternal" : true,
			"path" : "/home/plas9a/Qt/Tools/CMake/share/cmake-3.19/Modules/Compiler/Cray-DetermineCompiler.cmake"
		},
		{
			"isCMake" : true,
			"isExternal" : true,
			"path" : "/home/plas9a/Qt/Tools/CMake/share/cmake-3.19/Modules/Compiler/Embarcadero-DetermineCompiler.cmake"
		},
		{
			"isCMake" : true,
			"isExternal" : true,
			"path" : "/home/plas9a/Qt/Tools/CMake/share/cmake-3.19/Modules/Compiler/Fujitsu-DetermineCompiler.cmake"
		},
		{
			"isCMake" : true,
			"isExternal" : true,
			"path" : "/home/plas9a/Qt/Tools/CMake/share/cmake-3.19/Modules/Compiler/GHS-DetermineCompiler.cmake"
		},
		{
			"isCMake" : true,
			"isExternal" : true,
			"path" : "/home/plas9a/Qt/Tools/CMake/share/cmake-3.19/Modules/Compiler/GNU-CXX-DetermineCompiler.cmake"
		},
		{
			"isCMake" : true,
			"isExternal" : true,
			"path" : "/home/plas9a/Qt/Tools/CMake/share/cmake-3.19/Modules/Compiler/HP-CXX-DetermineCompiler.cmake"
		},
		{
			"isCMake" : true,
			"isExternal" : true,
			"path" : "/home/plas9a/Qt/Tools/CMake/share/cmake-3.19/Modules/Compiler/IAR-DetermineCompiler.cmake"
		},
		{
			"isCMake" : true,
			"isExternal" : true,
			"path" : "/home/plas9a/Qt/Tools/CMake/share/cmake-3.19/Modules/Compiler/Intel-DetermineCompiler.cmake"
		},
		{
			"isCMake" : true,
			"isExternal" : true,
			"path" : "/home/plas9a/Qt/Tools/CMake/share/cmake-3.19/Modules/Compiler/MSVC-DetermineCompiler.cmake"
		},
		{
			"isCMake" : true,
			"isExternal" : true,
			"path" : "/home/plas9a/Qt/Tools/CMake/share/cmake-3.19/Modules/Compiler/NVIDIA-DetermineCompiler.cmake"
		},
		{
			"isCMake" : true,
			"isExternal" : true,
			"path" : "/home/plas9a/Qt/Tools/CMake/share/cmake-3.19/Modules/Compiler/OpenWatcom-DetermineCompiler.cmake"
		},
		{
			"isCMake" : true,
			"isExternal" : true,
			"path" : "/home/plas9a/Qt/Tools/CMake/share/cmake-3.19/Modules/Compiler/PGI-DetermineCompiler.cmake"
		},
		{
			"isCMake" : true,
			"isExternal" : true,
			"path" : "/home/plas9a/Qt/Tools/CMake/share/cmake-3.19/Modules/Compiler/PathScale-DetermineCompiler.cmake"
		},
		{
			"isCMake" : true,
			"isExternal" : true,
			"path" : "/home/plas9a/Qt/Tools/CMake/share/cmake-3.19/Modules/Compiler/SCO-DetermineCompiler.cmake"
		},
		{
			"isCMake" : true,
			"isExternal" : true,
			"path" : "/home/plas9a/Qt/Tools/CMake/share/cmake-3.19/Modules/Compiler/SunPro-CXX-DetermineCompiler.cmake"
		},
		{
			"isCMake" : true,
			"isExternal" : true,
			"path" : "/home/plas9a/Qt/Tools/CMake/share/cmake-3.19/Modules/Compiler/TI-DetermineCompiler.cmake"
		},
		{
			"isCMake" : true,
			"isExternal" : true,
			"path" : "/home/plas9a/Qt/Tools/CMake/share/cmake-3.19/Modules/Compiler/VisualAge-CXX-DetermineCompiler.cmake"
		},
		{
			"isCMake" : true,
			"isExternal" : true,
			"path" : "/home/plas9a/Qt/Tools/CMake/share/cmake-3.19/Modules/Compiler/IBMCPP-CXX-DetermineVersionInternal.cmake"
		},
		{
			"isCMake" : true,
			"isExternal" : true,
			"path" : "/home/plas9a/Qt/Tools/CMake/share/cmake-3.19/Modules/Compiler/Watcom-DetermineCompiler.cmake"
		},
		{
			"isCMake" : true,
			"isExternal" : true,
			"path" : "/home/plas9a/Qt/Tools/CMake/share/cmake-3.19/Modules/Compiler/XL-CXX-DetermineCompiler.cmake"
		},
		{
			"isCMake" : true,
			"isExternal" : true,
			"path" : "/home/plas9a/Qt/Tools/CMake/share/cmake-3.19/Modules/Compiler/IBMCPP-CXX-DetermineVersionInternal.cmake"
		},
		{
			"isCMake" : true,
			"isExternal" : true,
			"path" : "/home/plas9a/Qt/Tools/CMake/share/cmake-3.19/Modules/Compiler/XLClang-CXX-DetermineCompiler.cmake"
		},
		{
			"isCMake" : true,
			"isExternal" : true,
			"path" : "/home/plas9a/Qt/Tools/CMake/share/cmake-3.19/Modules/Compiler/zOS-CXX-DetermineCompiler.cmake"
		},
		{
			"isCMake" : true,
			"isExternal" : true,
			"path" : "/home/plas9a/Qt/Tools/CMake/share/cmake-3.19/Modules/Compiler/IBMCPP-CXX-DetermineVersionInternal.cmake"
		},
		{
			"isCMake" : true,
			"isExternal" : true,
			"path" : "/home/plas9a/Qt/Tools/CMake/share/cmake-3.19/Modules/CMakeFindBinUtils.cmake"
		},
		{
			"isCMake" : true,
			"isExternal" : true,
			"path" : "/home/plas9a/Qt/Tools/CMake/share/cmake-3.19/Modules/Compiler/GNU-FindBinUtils.cmake"
		},
		{
			"isCMake" : true,
			"isExternal" : true,
			"path" : "/home/plas9a/Qt/Tools/CMake/share/cmake-3.19/Modules/CMakeCXXCompiler.cmake.in"
		},
		{
			"isGenerated" : true,
			"path" : "/home/plas9a/code-git/qt/build-learn-Desktop_Qt_6_0_3_GCC_64bit-Debug/CMakeFiles/3.19.2/CMakeCXXCompiler.cmake"
		},
		{
			"isCMake" : true,
			"isExternal" : true,
			"path" : "/home/plas9a/Qt/Tools/CMake/share/cmake-3.19/Modules/CMakeSystemSpecificInformation.cmake"
		},
		{
			"isCMake" : true,
			"isExternal" : true,
			"path" : "/home/plas9a/Qt/Tools/CMake/share/cmake-3.19/Modules/CMakeGenericSystem.cmake"
		},
		{
			"isCMake" : true,
			"isExternal" : true,
			"path" : "/home/plas9a/Qt/Tools/CMake/share/cmake-3.19/Modules/CMakeInitializeConfigs.cmake"
		},
		{
			"isCMake" : true,
			"isExternal" : true,
			"path" : "/home/plas9a/Qt/Tools/CMake/share/cmake-3.19/Modules/Platform/Linux.cmake"
		},
		{
			"isCMake" : true,
			"isExternal" : true,
			"path" : "/home/plas9a/Qt/Tools/CMake/share/cmake-3.19/Modules/Platform/UnixPaths.cmake"
		},
		{
			"isCMake" : true,
			"isExternal" : true,
			"path" : "/home/plas9a/Qt/Tools/CMake/share/cmake-3.19/Modules/CMakeCXXInformation.cmake"
		},
		{
			"isCMake" : true,
			"isExternal" : true,
			"path" : "/home/plas9a/Qt/Tools/CMake/share/cmake-3.19/Modules/CMakeLanguageInformation.cmake"
		},
		{
			"isCMake" : true,
			"isExternal" : true,
			"path" : "/home/plas9a/Qt/Tools/CMake/share/cmake-3.19/Modules/Compiler/GNU-CXX.cmake"
		},
		{
			"isCMake" : true,
			"isExternal" : true,
			"path" : "/home/plas9a/Qt/Tools/CMake/share/cmake-3.19/Modules/Compiler/GNU.cmake"
		},
		{
			"isCMake" : true,
			"isExternal" : true,
			"path" : "/home/plas9a/Qt/Tools/CMake/share/cmake-3.19/Modules/Compiler/CMakeCommonCompilerMacros.cmake"
		},
		{
			"isCMake" : true,
			"isExternal" : true,
			"path" : "/home/plas9a/Qt/Tools/CMake/share/cmake-3.19/Modules/Platform/Linux-GNU-CXX.cmake"
		},
		{
			"isCMake" : true,
			"isExternal" : true,
			"path" : "/home/plas9a/Qt/Tools/CMake/share/cmake-3.19/Modules/Platform/Linux-GNU.cmake"
		},
		{
			"isCMake" : true,
			"isExternal" : true,
			"path" : "/home/plas9a/Qt/Tools/CMake/share/cmake-3.19/Modules/CMakeCommonLanguageInclude.cmake"
		},
		{
			"isCMake" : true,
			"isExternal" : true,
			"path" : "/home/plas9a/Qt/Tools/CMake/share/cmake-3.19/Modules/CMakeTestCXXCompiler.cmake"
		},
		{
			"isCMake" : true,
			"isExternal" : true,
			"path" : "/home/plas9a/Qt/Tools/CMake/share/cmake-3.19/Modules/CMakeTestCompilerCommon.cmake"
		},
		{
			"isCMake" : true,
			"isExternal" : true,
			"path" : "/home/plas9a/Qt/Tools/CMake/share/cmake-3.19/Modules/CMakeDetermineCompilerABI.cmake"
		},
		{
			"isCMake" : true,
			"isExternal" : true,
			"path" : "/home/plas9a/Qt/Tools/CMake/share/cmake-3.19/Modules/CMakeParseImplicitIncludeInfo.cmake"
		},
		{
			"isCMake" : true,
			"isExternal" : true,
			"path" : "/home/plas9a/Qt/Tools/CMake/share/cmake-3.19/Modules/CMakeParseImplicitLinkInfo.cmake"
		},
		{
			"isCMake" : true,
			"isExternal" : true,
			"path" : "/home/plas9a/Qt/Tools/CMake/share/cmake-3.19/Modules/CMakeTestCompilerCommon.cmake"
		},
		{
			"isCMake" : true,
			"isExternal" : true,
			"path" : "/home/plas9a/Qt/Tools/CMake/share/cmake-3.19/Modules/CMakeCXXCompilerABI.cpp"
		},
		{
			"isCMake" : true,
			"isExternal" : true,
			"path" : "/home/plas9a/Qt/Tools/CMake/share/cmake-3.19/Modules/CMakeDetermineCompileFeatures.cmake"
		},
		{
			"isCMake" : true,
			"isExternal" : true,
			"path" : "/home/plas9a/Qt/Tools/CMake/share/cmake-3.19/Modules/Internal/FeatureTesting.cmake"
		},
		{
			"isCMake" : true,
			"isExternal" : true,
			"path" : "/home/plas9a/Qt/Tools/CMake/share/cmake-3.19/Modules/CMakeCXXCompiler.cmake.in"
		},
		{
			"isGenerated" : true,
			"path" : "/home/plas9a/code-git/qt/build-learn-Desktop_Qt_6_0_3_GCC_64bit-Debug/CMakeFiles/3.19.2/CMakeCXXCompiler.cmake"
		},
		{
			"isExternal" : true,
			"path" : "/home/plas9a/Qt/6.0.3/gcc_64/lib/cmake/Qt6/Qt6ConfigVersion.cmake"
		},
		{
			"isExternal" : true,
			"path" : "/home/plas9a/Qt/6.0.3/gcc_64/lib/cmake/Qt6/Qt6Config.cmake"
		},
		{
			"isExternal" : true,
			"path" : "/home/plas9a/Qt/6.0.3/gcc_64/lib/cmake/Qt6/Qt6Targets.cmake"
		},
		{
			"isExternal" : true,
			"path" : "/home/plas9a/Qt/6.0.3/gcc_64/lib/cmake/Qt6/Qt6VersionlessTargets.cmake"
		},
		{
			"isCMake" : true,
			"isExternal" : true,
			"path" : "/home/plas9a/Qt/Tools/CMake/share/cmake-3.19/Modules/CMakeFindDependencyMacro.cmake"
		},
		{
			"isExternal" : true,
			"path" : "/home/plas9a/Qt/6.0.3/gcc_64/lib/cmake/Qt6/Qt6Dependencies.cmake"
		},
		{
			"isCMake" : true,
			"isExternal" : true,
			"path" : "/home/plas9a/Qt/Tools/CMake/share/cmake-3.19/Modules/FindThreads.cmake"
		},
		{
			"isCMake" : true,
			"isExternal" : true,
			"path" : "/home/plas9a/Qt/Tools/CMake/share/cmake-3.19/Modules/CheckLibraryExists.cmake"
		},
		{
			"isCMake" : true,
			"isExternal" : true,
			"path" : "/home/plas9a/Qt/Tools/CMake/share/cmake-3.19/Modules/CheckIncludeFileCXX.cmake"
		},
		{
			"isCMake" : true,
			"isExternal" : true,
			"path" : "/home/plas9a/Qt/Tools/CMake/share/cmake-3.19/Modules/CheckCXXSourceCompiles.cmake"
		},
		{
			"isCMake" : true,
			"isExternal" : true,
			"path" : "/home/plas9a/Qt/Tools/CMake/share/cmake-3.19/Modules/Internal/CheckSourceCompiles.cmake"
		},
		{
			"isCMake" : true,
			"isExternal" : true,
			"path" : "/home/plas9a/Qt/Tools/CMake/share/cmake-3.19/Modules/CheckIncludeFile.cxx.in"
		},
		{
			"isCMake" : true,
			"isExternal" : true,
			"path" : "/home/plas9a/Qt/Tools/CMake/share/cmake-3.19/Modules/CheckForPthreads.c"
		},
		{
			"isGenerated" : true,
			"path" : "/home/plas9a/code-git/qt/build-learn-Desktop_Qt_6_0_3_GCC_64bit-Debug/CMakeFiles/FindThreads/CheckForPthreads.cxx"
		},
		{
			"isCMake" : true,
			"isExternal" : true,
			"path" : "/home/plas9a/Qt/Tools/CMake/share/cmake-3.19/Modules/FindPackageHandleStandardArgs.cmake"
		},
		{
			"isCMake" : true,
			"isExternal" : true,
			"path" : "/home/plas9a/Qt/Tools/CMake/share/cmake-3.19/Modules/FindPackageMessage.cmake"
		},
		{
			"isExternal" : true,
			"path" : "/home/plas9a/Qt/6.0.3/gcc_64/lib/cmake/Qt6/Qt6ConfigVersion.cmake"
		},
		{
			"isExternal" : true,
			"path" : "/home/plas9a/Qt/6.0.3/gcc_64/lib/cmake/Qt6/Qt6Config.cmake"
		},
		{
			"isExternal" : true,
			"path" : "/home/plas9a/Qt/6.0.3/gcc_64/lib/cmake/Qt6/Qt6Targets.cmake"
		},
		{
			"isExternal" : true,
			"path" : "/home/plas9a/Qt/6.0.3/gcc_64/lib/cmake/Qt6/Qt6VersionlessTargets.cmake"
		},
		{
			"isCMake" : true,
			"isExternal" : true,
			"path" : "/home/plas9a/Qt/Tools/CMake/share/cmake-3.19/Modules/CMakeFindDependencyMacro.cmake"
		},
		{
			"isExternal" : true,
			"path" : "/home/plas9a/Qt/6.0.3/gcc_64/lib/cmake/Qt6/Qt6Dependencies.cmake"
		},
		{
			"isCMake" : true,
			"isExternal" : true,
			"path" : "/home/plas9a/Qt/Tools/CMake/share/cmake-3.19/Modules/FindThreads.cmake"
		},
		{
			"isCMake" : true,
			"isExternal" : true,
			"path" : "/home/plas9a/Qt/Tools/CMake/share/cmake-3.19/Modules/CheckLibraryExists.cmake"
		},
		{
			"isCMake" : true,
			"isExternal" : true,
			"path" : "/home/plas9a/Qt/Tools/CMake/share/cmake-3.19/Modules/CheckIncludeFileCXX.cmake"
		},
		{
			"isCMake" : true,
			"isExternal" : true,
			"path" : "/home/plas9a/Qt/Tools/CMake/share/cmake-3.19/Modules/CheckCXXSourceCompiles.cmake"
		},
		{
			"isCMake" : true,
			"isExternal" : true,
			"path" : "/home/plas9a/Qt/Tools/CMake/share/cmake-3.19/Modules/FindPackageHandleStandardArgs.cmake"
		},
		{
			"isCMake" : true,
			"isExternal" : true,
			"path" : "/home/plas9a/Qt/Tools/CMake/share/cmake-3.19/Modules/FindPackageMessage.cmake"
		},
		{
			"isExternal" : true,
			"path" : "/home/plas9a/Qt/6.0.3/gcc_64/lib/cmake/Qt6Core/Qt6CoreConfigVersion.cmake"
		},
		{
			"isExternal" : true,
			"path" : "/home/plas9a/Qt/6.0.3/gcc_64/lib/cmake/Qt6Core/Qt6CoreConfig.cmake"
		},
		{
			"isCMake" : true,
			"isExternal" : true,
			"path" : "/home/plas9a/Qt/Tools/CMake/share/cmake-3.19/Modules/CMakeFindDependencyMacro.cmake"
		},
		{
			"isExternal" : true,
			"path" : "/home/plas9a/Qt/6.0.3/gcc_64/lib/cmake/Qt6Core/Qt6CoreDependencies.cmake"
		},
		{
			"isExternal" : true,
			"path" : "/home/plas9a/Qt/6.0.3/gcc_64/lib/cmake/Qt6/Qt6ConfigVersion.cmake"
		},
		{
			"isExternal" : true,
			"path" : "/home/plas9a/Qt/6.0.3/gcc_64/lib/cmake/Qt6/Qt6Config.cmake"
		},
		{
			"isExternal" : true,
			"path" : "/home/plas9a/Qt/6.0.3/gcc_64/lib/cmake/Qt6/Qt6Targets.cmake"
		},
		{
			"isExternal" : true,
			"path" : "/home/plas9a/Qt/6.0.3/gcc_64/lib/cmake/Qt6/Qt6VersionlessTargets.cmake"
		},
		{
			"isCMake" : true,
			"isExternal" : true,
			"path" : "/home/plas9a/Qt/Tools/CMake/share/cmake-3.19/Modules/CMakeFindDependencyMacro.cmake"
		},
		{
			"isExternal" : true,
			"path" : "/home/plas9a/Qt/6.0.3/gcc_64/lib/cmake/Qt6/Qt6Dependencies.cmake"
		},
		{
			"isCMake" : true,
			"isExternal" : true,
			"path" : "/home/plas9a/Qt/Tools/CMake/share/cmake-3.19/Modules/FindThreads.cmake"
		},
		{
			"isCMake" : true,
			"isExternal" : true,
			"path" : "/home/plas9a/Qt/Tools/CMake/share/cmake-3.19/Modules/CheckLibraryExists.cmake"
		},
		{
			"isCMake" : true,
			"isExternal" : true,
			"path" : "/home/plas9a/Qt/Tools/CMake/share/cmake-3.19/Modules/CheckIncludeFileCXX.cmake"
		},
		{
			"isCMake" : true,
			"isExternal" : true,
			"path" : "/home/plas9a/Qt/Tools/CMake/share/cmake-3.19/Modules/CheckCXXSourceCompiles.cmake"
		},
		{
			"isCMake" : true,
			"isExternal" : true,
			"path" : "/home/plas9a/Qt/Tools/CMake/share/cmake-3.19/Modules/FindPackageHandleStandardArgs.cmake"
		},
		{
			"isCMake" : true,
			"isExternal" : true,
			"path" : "/home/plas9a/Qt/Tools/CMake/share/cmake-3.19/Modules/FindPackageMessage.cmake"
		},
		{
			"isExternal" : true,
			"path" : "/home/plas9a/Qt/6.0.3/gcc_64/lib/cmake/Qt6/FindWrapAtomic.cmake"
		},
		{
			"isCMake" : true,
			"isExternal" : true,
			"path" : "/home/plas9a/Qt/Tools/CMake/share/cmake-3.19/Modules/CheckCXXSourceCompiles.cmake"
		},
		{
			"isCMake" : true,
			"isExternal" : true,
			"path" : "/home/plas9a/Qt/Tools/CMake/share/cmake-3.19/Modules/FindPackageHandleStandardArgs.cmake"
		},
		{
			"isCMake" : true,
			"isExternal" : true,
			"path" : "/home/plas9a/Qt/Tools/CMake/share/cmake-3.19/Modules/FindPackageMessage.cmake"
		},
		{
			"isExternal" : true,
			"path" : "/home/plas9a/Qt/6.0.3/gcc_64/lib/cmake/Qt6CoreTools/Qt6CoreToolsConfigVersion.cmake"
		},
		{
			"isExternal" : true,
			"path" : "/home/plas9a/Qt/6.0.3/gcc_64/lib/cmake/Qt6CoreTools/Qt6CoreToolsConfig.cmake"
		},
		{
			"isCMake" : true,
			"isExternal" : true,
			"path" : "/home/plas9a/Qt/Tools/CMake/share/cmake-3.19/Modules/CMakeFindDependencyMacro.cmake"
		},
		{
			"isExternal" : true,
			"path" : "/home/plas9a/Qt/6.0.3/gcc_64/lib/cmake/Qt6CoreTools/Qt6CoreToolsDependencies.cmake"
		},
		{
			"isExternal" : true,
			"path" : "/home/plas9a/Qt/6.0.3/gcc_64/lib/cmake/Qt6CoreTools/Qt6CoreToolsTargets.cmake"
		},
		{
			"isExternal" : true,
			"path" : "/home/plas9a/Qt/6.0.3/gcc_64/lib/cmake/Qt6CoreTools/Qt6CoreToolsTargets-relwithdebinfo.cmake"
		},
		{
			"isExternal" : true,
			"path" : "/home/plas9a/Qt/6.0.3/gcc_64/lib/cmake/Qt6CoreTools/Qt6CoreToolsAdditionalTargetInfo.cmake"
		},
		{
			"isExternal" : true,
			"path" : "/home/plas9a/Qt/6.0.3/gcc_64/lib/cmake/Qt6CoreTools/Qt6CoreToolsVersionlessTargets.cmake"
		},
		{
			"isExternal" : true,
			"path" : "/home/plas9a/Qt/6.0.3/gcc_64/lib/cmake/Qt6Core/Qt6CoreTargets.cmake"
		},
		{
			"isExternal" : true,
			"path" : "/home/plas9a/Qt/6.0.3/gcc_64/lib/cmake/Qt6Core/Qt6CoreTargets-relwithdebinfo.cmake"
		},
		{
			"isExternal" : true,
			"path" : "/home/plas9a/Qt/6.0.3/gcc_64/lib/cmake/Qt6Core/Qt6CoreAdditionalTargetInfo.cmake"
		},
		{
			"isExternal" : true,
			"path" : "/home/plas9a/Qt/6.0.3/gcc_64/lib/cmake/Qt6Core/Qt6CoreVersionlessTargets.cmake"
		},
		{
			"isExternal" : true,
			"path" : "/home/plas9a/Qt/6.0.3/gcc_64/lib/cmake/Qt6Core/Qt6CoreMacros.cmake"
		},
		{
			"isCMake" : true,
			"isExternal" : true,
			"path" : "/home/plas9a/Qt/Tools/CMake/share/cmake-3.19/Modules/CMakeParseArguments.cmake"
		},
		{
			"isExternal" : true,
			"path" : "/home/plas9a/Qt/6.0.3/gcc_64/lib/cmake/Qt6Core/Qt6CoreConfigExtras.cmake"
		},
		{
			"isExternal" : true,
			"path" : "/home/plas9a/Qt/6.0.3/gcc_64/lib/cmake/Qt6/QtFeature.cmake"
		},
		{
			"isExternal" : true,
			"path" : "/home/plas9a/Qt/6.0.3/gcc_64/lib/cmake/Qt6/QtFeatureCommon.cmake"
		},
		{
			"isCMake" : true,
			"isExternal" : true,
			"path" : "/home/plas9a/Qt/Tools/CMake/share/cmake-3.19/Modules/CheckCXXCompilerFlag.cmake"
		},
		{
			"isCMake" : true,
			"isExternal" : true,
			"path" : "/home/plas9a/Qt/Tools/CMake/share/cmake-3.19/Modules/CheckCXXSourceCompiles.cmake"
		},
		{
			"isCMake" : true,
			"isExternal" : true,
			"path" : "/home/plas9a/Qt/Tools/CMake/share/cmake-3.19/Modules/Internal/CheckCompilerFlag.cmake"
		},
		{
			"isCMake" : true,
			"isExternal" : true,
			"path" : "/home/plas9a/Qt/Tools/CMake/share/cmake-3.19/Modules/Internal/CheckSourceCompiles.cmake"
		},
		{
			"isCMake" : true,
			"isExternal" : true,
			"path" : "/home/plas9a/Qt/Tools/CMake/share/cmake-3.19/Modules/CMakeCheckCompilerFlagCommonPatterns.cmake"
		}
	],
	"kind" : "cmakeFiles",
	"paths" : 
	{
		"build" : "/home/plas9a/code-git/qt/build-learn-Desktop_Qt_6_0_3_GCC_64bit-Debug",
		"source" : "/home/plas9a/code-git/qt/learn"
	},
	"version" : 
	{
		"major" : 1,
		"minor" : 0
	}
}
